…
For each of the 19670 genes, the expression values for each of the 64 cell lines are provided in consecutive rows. We can verify that there are equal representation of genes across cell lines by quickly counting using `group_by()` and `summarize()` from `dplyr`:

``` r
library(tidyverse)
data %>% group_by(Cell.line) %>% summarize (num_genes = n())
```

    ## # A tibble: 64 x 2
    ##    Cell.line               num_genes
    ##    <chr>                       <int>
    ##  1 A-431                       19670
    ##  2 A549                        19670
    ##  3 AF22                        19670
    ##  4 AN3-CA                      19670
    ##  5 ASC diff                    19670
    ##  6 ASC TERT1                   19670
    ##  7 BEWO                        19670
    ##  8 BJ                          19670
    ##  9 BJ hTERT+                   19670
    ## 10 BJ hTERT+ SV40 Large T+     19670
    ## # … with 54 more rows
…
